id;name;left;right
1;Manufacturing;1;119
19;Construction materials;2;3
18;Electronics and Optics;4;5
6;Food and Beverage;6;21
342;Bakery & confectionery products;7;8
43;Beverages;9;10
42;Fish & fish products;11;12
40;Meat & meat products;13;14
39;Milk & dairy products;15;16
437;Other;17;18
378;Sweets & snack food;19;20
13;Furniture;22;41
389;Bathroom/sauna;23;24
385;Bedroom;25;26
390;Children’s room;27;28
98;Kitchen;29;30
101;Living room;31;32
392;Office;33;34
394;Other (Furniture);35;36
341;Outdoor;37;38
99;Project furniture;39;40
12;Machinery;42;63
94;Machinery components;43;44
91;Machinery equipment/tools;45;46
224;Manufacture of machinery;47;48
97;Maritime;49;56
271;Aluminium and steel workboats;50;51
269;Boat/Yacht building;52;53
230;Ship repair and conversion;54;55
93;Metal structures;57;58
508;Other;59;60
227;Repair and maintenance service;61;62
11;Metalworking;64;80
67;Construction of metal structures;65;66
263;Houses and buildings;67;68
267;Metal products;69;70
542;Metal works;71;78
75;CNC-machining;72;73
62;Forgings, Fasteners;74;75
69;Gas, Plasma, Laser cutting;76;77
66;MIG, TIG, Aluminum welding;78;79
9;Plastic and Rubber;81;96
54;Packaging;82;83
556;Plastic goods;84;85
559;Plastic processing technology;86;93
55;Blowing;87;88
57;Moulding;89;90
53;Plastics welding and processing;91;92
560;Plastic profiles;94;95
5;Printing;97;104
148;Advertising;98;99
150;Book/Periodicals printing;100;101
145;Labelling and packaging printing;102;103
7;Textile and Clothing;105;110
44;Clothing;106;107
45;Textile;108;109
8;Wood;111;118
337;Other (Wood);112;113
51;Wooden building materials;114;115
47;Wooden houses;116;117
3;Other;120;127
37;Creative industries;121;122
29;Energy technology;123;124
33;Environment;125;126
2;Service;128;157
25;Business services;129;130
35;Engineering;131;132
28;Information Technology and Telecommunications;133;142
581;Data processing, Web portals, E-marketing;134;135
576;Programming, Consultancy;136;137
121;Software, Hardware;138;139
122;Telecommunications;140;141
22;Tourism;143;144
141;Translation services;145;146
21;Transport and Logistics;147;156
111;Air;148;149
114;Rail;150;151
112;Road;152;153
113;Water;154;155
